<?xml version="1.0" standalone="no"?>
<!DOCTYPE svg PUBLIC "-//W3C//DTD SVG 20010904//EN"
 "http://www.w3.org/TR/2001/REC-SVG-20010904/DTD/svg10.dtd">
<svg version="1.0" xmlns="http://www.w3.org/2000/svg"
 width="1200.000000pt" height="827.000000pt" viewBox="0 0 1200.000000 827.000000"
 preserveAspectRatio="xMidYMid meet">
<metadata>
Created by potrace 1.14, written by Peter Selinger 2001-2017
</metadata>
<g transform="translate(0.000000,827.000000) scale(0.100000,-0.100000)"
fill="#4d4d4d" stroke="none">
<path d="M2092 5913 c-20 -295 -42 -704 -60 -1138 l-7 -180 -65 -22 c-60 -20
-237 -51 -420 -74 -41 -5 -122 -19 -179 -30 -94 -18 -117 -18 -229 -8 -140 12
-218 3 -309 -37 -77 -34 -88 -56 -73 -146 6 -40 18 -98 25 -128 27 -108 65
-312 60 -319 -2 -5 0 -22 5 -40 l9 -31 -42 -1 c-119 -3 -177 -19 -191 -54 -8
-22 33 -36 119 -42 l71 -5 62 -92 c63 -94 117 -154 128 -144 6 7 18 -2 96 -69
27 -24 53 -43 58 -43 6 0 10 -5 10 -11 0 -7 -19 -8 -56 -3 -46 5 -56 4 -52 -7
4 -11 32 -14 124 -15 65 -1 160 -7 209 -14 50 -6 135 -13 190 -15 55 -2 129
-11 165 -20 89 -23 142 -33 230 -46 41 -6 91 -15 111 -21 44 -12 164 -7 180 9
6 6 21 58 34 116 92 405 251 640 533 785 179 92 452 122 667 72 191 -44 346
-132 490 -282 156 -161 254 -362 315 -643 11 -55 25 -118 30 -140 5 -22 11
-102 14 -179 2 -76 8 -142 13 -147 11 -11 4042 -54 4054 -42 5 5 16 73 24 152
49 462 142 720 334 924 79 83 270 196 406 241 219 72 504 55 718 -42 135 -62
281 -180 353 -287 82 -121 130 -253 163 -448 24 -134 44 -187 72 -187 11 0 22
6 25 14 11 28 76 38 241 34 88 -2 159 0 157 4 -3 4 8 5 25 2 41 -8 156 55 165
90 3 14 15 28 26 31 11 3 20 12 20 20 0 7 12 24 28 37 30 26 145 252 163 319
17 69 28 162 22 187 -4 17 -29 34 -97 66 -50 23 -106 48 -123 55 -18 8 -33 17
-33 21 0 11 -101 49 -143 55 -64 8 -326 105 -497 183 -253 116 -445 179 -715
236 -106 22 -228 36 -445 50 -36 2 -108 13 -160 25 -53 11 -147 25 -210 31
-137 12 -422 12 -540 0 -82 -8 -416 3 -941 31 -119 6 -230 8 -247 5 -19 -5
-44 -1 -67 8 -21 9 -59 16 -85 16 -26 0 -69 7 -96 15 -58 17 -111 19 -116 4
-2 -6 -26 4 -53 23 -28 19 -129 88 -225 153 -96 65 -206 141 -245 168 -38 27
-144 98 -235 159 -190 128 -200 135 -200 158 0 23 -72 53 -171 74 -129 26
-397 40 -799 40 -507 0 -678 -13 -1073 -79 -133 -23 -141 -25 -195 -67 -31
-24 -61 -48 -67 -54 -44 -51 -348 -179 -805 -341 -257 -91 -672 -223 -700
-223 -30 0 12 1170 56 1568 3 28 2 52 -3 52 -5 0 -19 -143 -31 -317z m3816
-712 c15 -11 61 -41 102 -68 41 -27 113 -76 160 -108 47 -32 112 -77 145 -98
33 -22 78 -55 101 -74 23 -18 44 -33 48 -33 4 0 12 -5 19 -11 7 -5 50 -37 97
-69 47 -32 90 -64 97 -69 7 -6 28 -22 47 -35 71 -48 74 -65 16 -96 -37 -20
-64 -13 -147 38 -41 26 -82 52 -91 57 -72 42 -102 62 -137 90 -22 17 -51 36
-65 42 -20 8 -360 237 -395 265 -5 5 -20 16 -32 26 -106 85 -132 108 -129 117
2 7 66 29 134 44 2 1 15 -8 30 -18z m-318 -10 c0 -5 6 -16 14 -23 25 -25 81
-73 108 -94 35 -27 121 -100 223 -189 44 -39 150 -128 235 -199 171 -142 216
-186 199 -197 -7 -4 -55 -10 -108 -13 -53 -4 -117 -9 -142 -12 l-46 -5 -21 52
c-12 28 -22 57 -22 64 0 7 -29 40 -65 73 -36 33 -65 64 -65 70 0 15 -48 24
-70 12 -49 -26 -72 -62 -77 -120 -5 -52 -4 -58 15 -64 11 -4 22 -17 24 -29 4
-27 53 -35 113 -17 36 11 41 10 58 -11 14 -18 15 -24 5 -30 -24 -13 -1216 -22
-1293 -9 -58 9 -206 52 -265 77 -8 3 -19 7 -25 7 -23 3 -95 30 -95 35 0 3 -5
98 -10 211 -5 113 -12 225 -16 248 -6 39 -9 43 -30 39 -14 -2 -25 2 -28 10 -7
17 -8 53 -2 53 2 0 64 7 138 15 303 32 1248 67 1248 46z m2050 -1560 c0 -4 -5
-22 -11 -40 -8 -23 -17 -31 -34 -31 -22 0 -23 3 -14 32 5 17 14 35 21 40 17
10 38 10 38 -1z m150 0 c0 -4 -5 -22 -11 -40 -8 -23 -17 -31 -34 -31 -22 0
-23 3 -14 32 5 17 14 35 21 40 17 10 38 10 38 -1z m150 0 c0 -4 -5 -22 -11
-40 -8 -23 -17 -31 -34 -31 -22 0 -23 3 -14 32 5 17 14 35 21 40 17 10 38 10
38 -1z m160 0 c0 -4 -5 -22 -11 -40 -8 -23 -17 -31 -34 -31 -22 0 -23 3 -14
32 5 17 14 35 21 40 17 10 38 10 38 -1z m150 0 c0 -4 -5 -22 -11 -40 -8 -23
-17 -31 -34 -31 -22 0 -23 3 -14 32 5 17 14 35 21 40 17 10 38 10 38 -1z
m-640 -110 c0 -4 -5 -22 -11 -40 -8 -23 -17 -31 -34 -31 -22 0 -23 3 -14 32 5
17 14 35 21 40 17 10 38 10 38 -1z m150 0 c0 -4 -5 -22 -11 -40 -8 -23 -17
-31 -34 -31 -22 0 -23 3 -14 32 5 17 14 35 21 40 17 10 38 10 38 -1z m150 0
c0 -4 -5 -22 -11 -40 -8 -23 -17 -31 -34 -31 -22 0 -23 3 -14 32 5 17 14 35
21 40 17 10 38 10 38 -1z m160 0 c0 -4 -5 -22 -11 -40 -8 -23 -17 -31 -34 -31
-22 0 -23 3 -14 32 5 17 14 35 21 40 17 10 38 10 38 -1z m150 0 c0 -4 -5 -22
-11 -40 -8 -23 -17 -31 -34 -31 -22 0 -23 3 -14 32 5 17 14 35 21 40 17 10 38
10 38 -1z m-640 -100 c0 -4 -5 -22 -11 -40 -8 -23 -17 -31 -34 -31 -22 0 -23
3 -14 32 5 17 14 35 21 40 17 10 38 10 38 -1z m150 0 c0 -4 -5 -22 -11 -40 -8
-23 -17 -31 -34 -31 -22 0 -23 3 -14 32 5 17 14 35 21 40 17 10 38 10 38 -1z
m150 0 c0 -4 -5 -22 -11 -40 -8 -23 -17 -31 -34 -31 -22 0 -23 3 -14 32 5 17
14 35 21 40 17 10 38 10 38 -1z m160 0 c0 -4 -5 -22 -11 -40 -8 -23 -17 -31
-34 -31 -22 0 -23 3 -14 32 5 17 14 35 21 40 17 10 38 10 38 -1z m150 0 c0 -4
-5 -22 -11 -40 -8 -23 -17 -31 -34 -31 -22 0 -23 3 -14 32 5 17 14 35 21 40
17 10 38 10 38 -1z m-640 -100 c0 -4 -5 -22 -11 -40 -8 -23 -17 -31 -34 -31
-22 0 -23 3 -14 32 5 17 14 35 21 40 17 10 38 10 38 -1z m150 0 c0 -4 -5 -22
-11 -40 -8 -23 -17 -31 -34 -31 -22 0 -23 3 -14 32 5 17 14 35 21 40 17 10 38
10 38 -1z m150 0 c0 -4 -5 -22 -11 -40 -8 -23 -17 -31 -34 -31 -22 0 -23 3
-14 32 5 17 14 35 21 40 17 10 38 10 38 -1z m160 0 c0 -4 -5 -22 -11 -40 -8
-23 -17 -31 -34 -31 -22 0 -23 3 -14 32 5 17 14 35 21 40 17 10 38 10 38 -1z
m150 0 c0 -4 -5 -22 -11 -40 -8 -23 -17 -31 -34 -31 -22 0 -23 3 -14 32 5 17
14 35 21 40 17 10 38 10 38 -1z"/>
<path d="M3125 4045 c-349 -63 -628 -327 -696 -659 -95 -462 218 -906 701
-992 462 -83 919 216 1011 660 95 462 -218 906 -701 992 -93 16 -223 16 -315
-1z"/>
<path d="M9305 3935 c-349 -63 -628 -327 -696 -659 -95 -462 218 -906 701
-992 462 -83 919 216 1011 660 95 462 -218 906 -701 992 -93 16 -223 16 -315
-1z"/>
</g>
</svg>
