<?xml version="1.0" standalone="no"?>
<!DOCTYPE svg PUBLIC "-//W3C//DTD SVG 20010904//EN"
 "http://www.w3.org/TR/2001/REC-SVG-20010904/DTD/svg10.dtd">
<svg version="1.0" xmlns="http://www.w3.org/2000/svg"
 width="580.000000pt" height="400.000000pt" viewBox="0 0 580.000000 400.000000"
 preserveAspectRatio="xMidYMid meet">
<metadata>
Created by potrace 1.14, written by Peter Selinger 2001-2017
</metadata>
<g transform="translate(0.000000,400.000000) scale(0.100000,-0.100000)"
fill="#4d4d4d" stroke="none">
<path d="M4168 3737 c-79 -23 -150 -89 -183 -173 -9 -21 -24 -55 -33 -74 -12
-24 -17 -66 -19 -139 -1 -56 -3 -105 -5 -107 -2 -2 -28 3 -58 11 -39 10 -64
12 -85 5 -16 -5 -46 -9 -65 -8 -19 1 -78 -8 -130 -20 -126 -28 -253 -93 -350
-178 -41 -36 -93 -75 -115 -86 -98 -51 -240 -163 -289 -230 -22 -31 -29 -50
-30 -93 -1 -50 2 -57 36 -92 20 -21 44 -56 51 -78 8 -22 26 -58 41 -79 14 -21
26 -43 26 -49 0 -6 7 -18 16 -28 15 -16 12 -22 -27 -76 -24 -32 -80 -94 -125
-139 -85 -84 -124 -136 -124 -167 0 -9 -10 -22 -22 -27 -46 -20 -308 -72 -504
-100 -661 -96 -953 -160 -1554 -339 -217 -65 -338 -97 -344 -91 -16 16 -52 11
-71 -10 -16 -18 -17 -23 -5 -45 16 -30 55 -33 84 -6 18 15 753 236 951 285 70
17 458 84 905 156 173 28 362 60 418 71 57 11 106 18 110 15 3 -3 -9 -24 -27
-46 -38 -48 -92 -161 -132 -280 -26 -74 -36 -92 -85 -137 -31 -29 -62 -53 -68
-53 -7 0 -16 -4 -22 -10 -5 -5 -49 -21 -97 -35 -137 -39 -231 -92 -321 -179
-26 -26 -51 -46 -57 -46 -21 0 -100 -53 -120 -81 -11 -16 -23 -28 -27 -28 -4
1 -9 0 -12 -1 -14 -5 -51 -10 -103 -13 -59 -4 -59 -4 -142 -88 -46 -46 -96
-93 -111 -104 -36 -27 -70 -59 -75 -71 -8 -20 -131 -106 -165 -115 -19 -6 -50
-23 -68 -40 -38 -33 -54 -36 -70 -13 -10 13 -16 14 -39 3 -29 -13 -32 -20 -18
-34 6 -6 -66 -11 -197 -14 -114 -2 -215 -7 -224 -12 -9 -5 -39 -9 -66 -9 -45
0 -53 -4 -85 -39 -67 -74 -68 -93 -7 -144 60 -51 53 -51 769 -37 366 7 842 13
1056 14 352 1 393 3 422 19 53 29 78 100 53 148 -9 15 -7 19 7 19 66 -1 852
-41 953 -50 69 -5 252 -17 406 -25 307 -16 348 -12 400 36 73 69 7 196 -111
214 -22 4 -93 -1 -158 -9 -128 -17 -278 -20 -605 -9 l-212 6 0 36 c0 20 -4 43
-10 51 -12 19 6 40 36 40 13 0 33 11 46 24 24 25 84 49 99 41 16 -10 88 35
116 72 36 47 94 102 114 108 9 3 19 13 21 23 3 9 65 50 139 91 140 78 222 144
406 331 95 96 111 121 120 185 5 38 1 55 -26 109 -40 82 -93 131 -152 140 -24
4 -84 16 -132 27 l-89 21 30 18 c16 10 110 117 208 237 98 120 200 244 226
275 l49 57 60 -78 c32 -43 123 -141 202 -217 79 -77 151 -150 160 -164 9 -14
23 -58 32 -98 8 -41 33 -108 56 -152 45 -85 45 -90 36 -255 -6 -114 6 -166 44
-194 55 -41 159 -62 198 -41 15 8 38 -16 152 -163 77 -99 132 -179 131 -191
-2 -34 17 -56 48 -56 59 0 65 74 7 85 -28 6 -49 30 -155 177 l-123 171 33 34
c28 29 33 43 38 101 9 98 -1 130 -55 179 -64 58 -85 117 -85 232 0 49 -6 106
-14 127 -7 22 -16 62 -20 89 -4 28 -14 60 -21 71 -8 12 -25 49 -39 83 -19 48
-44 81 -106 144 -100 101 -149 173 -190 280 -43 110 -61 144 -110 205 -48 62
-168 159 -228 186 -40 18 -57 46 -28 46 22 0 68 76 83 137 14 62 9 243 -8 243
-5 0 -9 7 -9 16 0 33 -56 131 -102 177 -88 88 -219 125 -330 94z m70 -397 c45
-11 94 -27 108 -37 36 -23 98 -19 169 10 32 14 63 23 68 20 12 -7 0 -95 -20
-144 -17 -43 -65 -89 -92 -89 -10 0 -35 14 -56 30 -21 17 -42 30 -47 30 -5 0
-31 -11 -58 -25 -86 -44 -143 -29 -205 51 -30 40 -35 55 -35 98 0 29 5 57 12
64 17 17 61 15 156 -8z m-989 -741 c-27 -35 -43 -40 -47 -16 -2 12 8 22 30 32
18 8 35 14 37 15 2 0 -7 -14 -20 -31z m26 -1223 c41 -30 81 -49 125 -61 103
-25 100 -22 45 -71 -27 -24 -54 -44 -59 -44 -15 0 -96 -70 -96 -84 0 -17 -126
-118 -185 -149 -29 -14 -91 -66 -146 -121 -86 -86 -100 -96 -132 -96 -33 0
-40 -5 -70 -50 -33 -49 -34 -50 -52 -30 -13 14 -25 18 -44 13 -34 -8 -36 -10
-23 -26 9 -11 7 -16 -11 -25 -24 -12 -41 -14 -137 -13 -51 0 -75 6 -114 27
-47 26 -63 28 -151 23 -11 0 -47 9 -79 20 -33 12 -79 21 -103 21 -43 0 -44 1
-29 21 8 12 52 36 98 55 46 19 119 56 163 83 44 26 97 54 117 60 20 7 42 19
48 27 7 7 25 14 41 14 26 0 123 48 179 89 14 10 64 44 113 75 56 37 128 98
200 172 62 63 128 125 147 138 l35 24 30 -24 c17 -13 57 -44 90 -68z m-1532
-878 c25 -12 64 -22 97 -23 31 -1 65 -7 75 -12 15 -9 10 -11 -26 -16 -71 -10
-349 -20 -349 -13 0 12 155 105 158 95 2 -5 22 -19 45 -31z"/>
</g>
</svg>
