<?xml version="1.0" standalone="no"?>
<!DOCTYPE svg PUBLIC "-//W3C//DTD SVG 20010904//EN"
 "http://www.w3.org/TR/2001/REC-SVG-20010904/DTD/svg10.dtd">
<svg version="1.0" xmlns="http://www.w3.org/2000/svg"
 width="1114.000000pt" height="768.000000pt" viewBox="0 0 1114.000000 768.000000"
 preserveAspectRatio="xMidYMid meet">
<metadata>
Created by potrace 1.14, written by Peter Selinger 2001-2017
</metadata>
<g transform="translate(0.000000,768.000000) scale(0.100000,-0.100000)"
fill="#4d4d4d" stroke="none">
<path d="M2520 6405 c-157 -26 -345 -89 -435 -146 -113 -70 -211 -194 -295
-373 -31 -65 -86 -224 -156 -451 -119 -389 -166 -569 -224 -851 -83 -403 -79
-362 -81 -1014 -1 -562 0 -589 21 -690 28 -139 79 -290 141 -418 89 -184 222
-291 429 -345 l83 -22 88 -205 c48 -113 85 -208 81 -211 -4 -4 -83 -37 -177
-74 -196 -77 -505 -226 -650 -313 -132 -79 -253 -166 -428 -306 -340 -273
-563 -490 -726 -706 -107 -141 -191 -263 -191 -275 0 -3 183 -5 408 -5 l407 0
81 123 c237 356 611 704 1066 993 371 236 731 366 1273 459 299 52 740 95 955
95 l65 0 -125 -66 c-240 -127 -456 -276 -643 -442 -235 -209 -466 -529 -662
-917 -51 -99 -97 -195 -103 -213 l-11 -32 373 0 373 0 33 93 c46 129 185 401
274 534 147 222 343 440 518 575 308 239 783 416 1228 457 134 13 2677 31
4173 31 l997 0 0 75 0 75 -310 0 -310 0 0 80 c0 65 3 80 15 80 9 0 27 11 40
25 l25 24 0 413 c0 469 4 445 -83 474 -49 18 -122 18 -1402 15 l-1350 -3 -155
26 c-304 51 -638 153 -855 261 -218 109 -425 288 -569 494 -100 143 -157 254
-240 461 -130 326 -195 536 -332 1060 -74 283 -139 535 -145 560 -39 174 -161
356 -302 452 -107 73 -268 126 -447 148 -129 15 -1644 12 -1740 -5z m885 -193
c202 -102 201 -389 0 -488 -48 -23 -64 -26 -127 -22 -116 6 -197 59 -241 157
-26 57 -27 159 -3 214 31 71 101 134 176 158 43 14 152 4 195 -19z m-239 -749
c-3 -27 -20 -203 -36 -393 -17 -190 -33 -360 -36 -377 l-5 -33 -699 0 c-553 0
-700 3 -700 13 0 6 50 198 112 424 l113 413 628 0 629 0 -6 -47z m1454 41 c0
-16 60 -747 65 -791 l6 -53 -700 0 -701 0 0 28 c0 15 18 205 40 422 22 217 40
396 40 398 0 5 1250 2 1250 -4z m877 -1750 c160 -269 360 -479 575 -605 138
-81 428 -188 688 -254 115 -30 190 -43 448 -81 l32 -5 0 -146 0 -146 -152 7
c-746 34 -1226 178 -1660 498 l-68 50 1 471 1 472 37 -80 c21 -44 65 -126 98
-181z m-3343 -278 c114 -56 182 -173 174 -301 -12 -191 -179 -325 -366 -295
-244 40 -350 337 -185 520 73 82 143 111 250 106 53 -2 86 -10 127 -30z m2373
-2 c186 -90 235 -340 97 -493 -65 -73 -138 -105 -234 -106 -65 0 -84 4 -142
33 -105 52 -166 141 -175 257 -20 243 234 417 454 309z m5391 -811 l3 -153
-1226 0 -1225 0 0 155 0 155 1223 -2 1222 -3 3 -152z"/>
</g>
</svg>
