<?xml version="1.0" standalone="no"?>
<!DOCTYPE svg PUBLIC "-//W3C//DTD SVG 20010904//EN"
 "http://www.w3.org/TR/2001/REC-SVG-20010904/DTD/svg10.dtd">
<svg version="1.0" xmlns="http://www.w3.org/2000/svg"
 width="800.000000pt" height="532.000000pt" viewBox="0 0 800.000000 532.000000"
 preserveAspectRatio="xMidYMid meet">
<metadata>
Created by potrace 1.14, written by Peter Selinger 2001-2017
</metadata>
<g transform="translate(0.000000,532.000000) scale(0.100000,-0.100000)"
fill="#f2f2f2" stroke="none">
<path d="M4484 4270 c-105 -21 -120 -29 -187 -99 -37 -38 -67 -77 -67 -87 0
-10 -18 -48 -40 -85 -44 -74 -49 -103 -23 -131 21 -23 9 -36 -14 -16 -50 44
-85 53 -203 52 -106 0 -119 -2 -170 -28 -132 -68 -250 -183 -275 -266 -4 -13
-50 -70 -102 -126 -52 -56 -110 -125 -129 -153 -22 -33 -39 -49 -47 -44 -7 4
-36 22 -66 41 -248 158 -526 145 -681 -32 -47 -53 -101 -151 -122 -220 l-21
-69 -20 39 c-99 193 -289 314 -468 298 -136 -12 -242 -67 -365 -189 -114 -112
-177 -209 -255 -390 -63 -146 -102 -356 -101 -555 0 -387 143 -696 373 -808
106 -53 207 -61 322 -27 175 52 370 243 474 465 67 142 91 217 128 395 7 30 7
29 32 -25 64 -140 189 -315 303 -424 263 -251 558 -315 774 -168 l69 47 331 0
c374 0 336 -7 471 90 74 53 79 55 141 55 50 0 71 -5 93 -21 25 -19 40 -21 120
-18 l91 4 6 -35 c14 -92 48 -229 66 -270 11 -24 24 -56 30 -69 17 -46 81 -145
135 -209 29 -35 53 -67 53 -72 0 -9 157 -149 216 -193 61 -44 163 -71 279 -71
97 -1 103 0 186 40 64 31 106 60 164 115 139 132 200 230 276 442 81 226 100
382 75 607 -29 255 -59 380 -121 505 -79 159 -124 222 -225 318 -143 136 -252
187 -440 206 -98 11 -101 12 -158 57 -82 67 -204 201 -236 261 -16 28 -57 83
-92 121 -70 77 -76 97 -41 145 19 28 22 44 22 132 0 95 -2 104 -37 177 -27 57
-55 96 -106 147 -80 80 -143 115 -243 136 -76 16 -112 17 -175 5z m434 -1150
c23 -17 32 -32 32 -51 0 -22 17 -43 89 -105 l89 -78 -36 -50 c-20 -28 -51 -73
-69 -101 -37 -55 -109 -200 -119 -240 -3 -14 -9 -25 -13 -25 -4 0 -17 29 -30
64 -35 99 -43 107 -109 107 -188 -1 -280 5 -298 19 -54 42 -141 116 -156 133
-29 31 -22 52 24 73 32 14 79 63 210 218 92 109 168 205 168 213 0 8 42 -23
93 -69 51 -47 108 -95 125 -108z m826 -337 c108 -47 203 -153 286 -322 103
-208 128 -342 110 -597 -19 -271 -88 -462 -223 -610 -47 -52 -132 -114 -156
-114 -7 0 -28 -7 -47 -16 -30 -14 -46 -15 -119 -6 -142 19 -247 75 -348 189
-125 140 -189 290 -212 495 -8 75 -15 148 -15 161 l0 23 103 -33 c102 -34 133
-35 160 -9 21 21 111 -29 115 -64 8 -70 34 -94 112 -106 52 -8 95 10 110 47
11 27 16 29 47 23 30 -6 38 -2 73 35 31 32 46 41 73 41 65 0 76 43 21 87 -19
15 -60 50 -90 77 -50 45 -56 48 -80 38 -22 -11 -28 -9 -51 14 -29 29 -117 74
-145 74 -10 0 -18 3 -18 8 1 18 36 151 41 157 4 3 15 -17 27 -44 17 -42 28
-54 71 -75 65 -33 83 -32 156 7 69 37 105 84 105 136 0 59 -20 164 -35 188 -8
12 -51 40 -94 63 -80 42 -80 42 -86 88 -4 26 -9 56 -12 66 -5 17 -1 18 27 12
18 -3 60 -18 94 -33z m-385 -147 c70 -54 102 -84 110 -107 18 -53 17 -55 -56
-51 -62 3 -80 -1 -198 -46 -92 -35 -131 -46 -133 -37 -8 34 70 183 135 258 18
20 33 42 33 47 0 17 8 12 109 -64z m49 -313 c16 -32 3 -43 -51 -43 -44 0 -56
-4 -84 -32 -18 -18 -33 -38 -33 -46 0 -8 -6 -12 -12 -9 -7 2 -42 15 -76 27
l-64 23 134 48 c148 53 173 57 186 32z"/>
</g>
</svg>
