<?xml version="1.0" standalone="no"?>
<!DOCTYPE svg PUBLIC "-//W3C//DTD SVG 20010904//EN"
 "http://www.w3.org/TR/2001/REC-SVG-20010904/DTD/svg10.dtd">
<svg version="1.0" xmlns="http://www.w3.org/2000/svg"
 width="1433.000000pt" height="1024.000000pt" viewBox="0 0 1433.000000 1024.000000"
 preserveAspectRatio="xMidYMid meet">
<metadata>
Created by potrace 1.14, written by Peter Selinger 2001-2017
</metadata>
<g transform="translate(0.000000,1024.000000) scale(0.100000,-0.100000)"
fill="#f2f2f2" stroke="none">
<path d="M7135 9990 c-1422 -107 -2697 -800 -3557 -1936 -485 -640 -813 -1429
-927 -2229 -39 -271 -45 -367 -46 -700 0 -344 7 -448 50 -741 231 -1566 1241
-2941 2680 -3649 955 -469 2043 -609 3110 -399 576 114 1168 352 1664 671
1109 713 1891 1849 2150 3123 73 359 96 597 96 1000 -1 327 -7 426 -46 695
-207 1451 -1076 2746 -2344 3497 -612 362 -1265 577 -1990 654 -168 18 -672
26 -840 14z m795 -375 c260 -28 634 -97 697 -130 15 -8 34 -15 40 -15 28 0
311 -93 348 -114 22 -13 61 -31 88 -41 l47 -18 0 -79 0 -79 31 -11 32 -11 -6
-94 c-3 -52 -8 -97 -11 -100 -3 -3 -87 -14 -188 -24 -522 -53 -952 -153 -1398
-327 l-75 -30 -50 30 c-220 129 -506 237 -797 302 -208 47 -396 71 -720 92
l-98 6 0 97 0 97 30 11 30 11 0 89 0 89 163 52 c368 118 719 185 1103 212 171
12 553 4 734 -15z m1659 -522 c47 -25 111 -64 141 -85 30 -22 116 -79 191
-128 75 -48 138 -92 140 -97 2 -6 58 -51 124 -101 66 -50 154 -121 195 -159
133 -121 265 -248 269 -258 2 -5 40 -48 85 -95 86 -90 163 -180 183 -216 7
-12 46 -66 88 -119 68 -87 246 -348 304 -448 l23 -37 -29 11 c-15 6 -47 17
-70 24 l-43 13 26 -44 c14 -24 24 -44 21 -44 -3 0 -25 8 -49 19 -72 30 -306
107 -421 137 l-109 29 -90 130 c-375 537 -768 962 -1116 1206 l-64 44 7 45
c14 102 13 102 45 85 32 -17 31 -18 46 88 3 26 9 47 12 47 3 0 44 -21 91 -47z
m-3489 -324 c316 -22 622 -82 875 -170 148 -52 430 -185 457 -216 28 -33 144
-804 223 -1489 9 -78 15 -150 13 -161 -1 -11 -97 -99 -213 -198 -525 -446
-908 -803 -1178 -1100 -50 -55 -94 -101 -98 -103 -4 -2 -77 18 -161 43 -406
122 -938 256 -1312 330 -92 18 -172 37 -178 43 -15 15 -85 272 -123 453 -63
305 -109 672 -136 1091 l-12 187 78 103 c420 554 866 938 1334 1150 101 45
110 47 196 47 50 1 155 -4 235 -10z m-2133 -1319 l102 -12 5 -42 c3 -22 8 -90
11 -151 29 -525 118 -1091 231 -1455 l36 -115 -104 -155 c-291 -436 -476 -883
-548 -1326 l-11 -72 -97 -12 c-53 -6 -153 -10 -221 -8 l-125 3 -8 31 c-7 28
-12 31 -65 40 l-58 9 -23 115 c-55 278 -73 438 -79 685 -3 105 -8 195 -13 200
-4 6 -3 80 1 165 5 85 10 187 10 225 0 125 75 547 124 709 8 27 15 63 15 80 0
17 28 110 61 206 33 96 64 189 68 205 20 77 240 537 287 600 13 17 29 21 110
23 94 4 95 4 116 36 16 24 27 31 47 30 14 -2 72 -8 128 -14z m6825 -186 c156
-45 338 -118 490 -196 116 -58 120 -62 145 -113 20 -40 41 -64 83 -94 57 -40
57 -40 107 -173 53 -139 63 -173 108 -353 62 -247 85 -352 85 -391 0 -23 4
-64 9 -91 46 -238 66 -790 38 -985 -9 -57 -18 -137 -22 -178 -13 -156 -56
-401 -80 -453 -13 -29 -36 -104 -51 -167 -27 -108 -33 -121 -109 -236 -78
-116 -182 -250 -221 -286 -21 -18 -34 -14 -239 82 -179 83 -639 284 -801 350
l-81 33 -7 81 c-42 521 -170 1143 -356 1736 -66 208 -66 207 -48 228 60 68
599 901 757 1170 24 39 49 72 56 72 7 0 69 -16 137 -36z m-2859 -713 c511
-114 1044 -287 1573 -512 136 -57 141 -61 153 -97 233 -725 346 -1259 405
-1919 3 -41 1 -45 -116 -180 -66 -76 -217 -235 -336 -353 -303 -301 -540 -500
-841 -711 -104 -72 -141 -93 -163 -91 -45 4 -367 69 -524 107 -440 106 -874
256 -1226 424 l-126 60 -57 233 c-131 539 -242 1042 -321 1453 -18 99 -36 190
-39 202 -4 17 10 40 57 95 149 174 517 532 833 809 146 129 589 509 593 509 1
0 62 -13 135 -29z m-4168 -2716 c214 -469 611 -949 1098 -1328 48 -38 87 -72
87 -75 0 -4 7 -66 15 -137 30 -257 87 -521 162 -747 l39 -116 -45 30 -44 31 5
-27 c5 -27 5 -27 -21 -9 -69 45 -243 172 -307 224 -40 31 -85 64 -100 72 -77
40 -471 425 -607 594 -59 72 -111 133 -115 135 -11 4 -138 185 -193 273 -23
39 -57 86 -73 106 -17 20 -69 110 -116 200 -46 90 -94 178 -106 196 -29 43
-117 257 -175 428 l-48 140 49 3 c28 2 50 4 50 5 0 1 -4 16 -9 33 l-9 31 112
7 c61 4 147 13 191 20 44 7 87 14 96 15 11 1 31 -32 64 -104z m2985 -770 c333
-166 778 -325 1205 -431 185 -46 559 -124 595 -124 10 0 23 -8 29 -17 24 -46
185 -650 261 -979 l51 -218 -53 -54 c-131 -134 -302 -257 -488 -352 -114 -58
-120 -59 -266 -79 -227 -31 -368 -41 -604 -41 -327 0 -607 29 -916 96 -89 18
-170 34 -182 34 -52 0 -483 141 -490 161 -2 5 -10 9 -18 9 -8 0 -32 9 -52 20
-20 11 -108 53 -194 94 l-157 74 -50 101 c-148 293 -233 605 -276 1007 l-7 60
124 48 c130 51 379 157 638 272 85 37 286 134 445 214 160 81 295 147 302 148
6 1 53 -18 103 -43z m2590 -1879 c0 -6 -273 -121 -381 -160 l-96 -34 89 89 89
90 102 8 c125 10 197 12 197 7z"/>
</g>
</svg>
